{
  "name": "objects",
  "base": "PersistedModel",
  "idInjection": true,
  "options": {
    "validateUpsert": true
  },
  "properties": {
    "ObjectId": {
      "type": "number",
      "required": true
    },
    "Client": {
      "type": "string",
      "id": true,
      "required": true
    },
    "System": {
      "type": "string",
      "id": true,
      "required": true
    },
    "ObjectName": {
      "type": "string",
      "id": true,
      "required": true
    },
    "Source": {
      "type": "string",
      "required": true
    },
    "Destination": {
      "type": "string",
      "required": true
    },
    "Description": {
      "type": "string",
      "required": true
    },
    "ObjectType": {
      "type": "string",
      "required": true
    },
    "BusinessProcess": {
      "type": "string",
      "required": true
    },
    "Access": {
      "type": "string",
      "required": true
    }
  },
  "validations": [],
  "relations": {},
  "acls": [],
  "methods": {}
}
